{
  "FOLDERS": {
    "CYBER": [
      {
        "name": "ex4.enc",
        "link": "https://mega.nz/#!91dxiSaC!U_CK3Le3vLzQTfjU9z_VttUIFqtlu3dRqNoI35nwmdc"
      },
      {
        "name": "ex4(1).enc",
        "link": "https://mega.nz/#!Zschma6J!tvSe8er5WjIqqy6662xexTKoW4qSmsOZgH-cvD26Qt0"
      }
    ],
    "COURSE_CHOICES": [
      {
        "name": "DP תבניות עיצוב",
        "link": "https://mega.nz/#F!hpEDHAhT!KovE0pjsl1x9SSstaYn42A"
      },
      {
        "name": "GIS",
        "link": "https://mega.nz/#F!J4dFgaRR!rflxGiJ_gscSSa1tctiG9Q"
      },
      {
        "name": "Java - צד שרת",
        "link": "https://mega.nz/#F!EoVRXaAb!BOzegxhHIegQGVfvCfyMiw"
      },
      {
        "name": "N.L.P- עיבוד שפה טיבעית (דבור וטקסט) בעזרת מחשב",
        "link": "https://mega.nz/#F!s8VnUagQ!HfXZ2OBPA_PqN1Lx_xjOmw"
      },
      {
        "name": "אבטחת רשתות",
        "link": "https://mega.nz/#F!4wdDAaRa!Gh2fOtp70Og6ivgm8qz81w"
      },
      {
        "name": "אלגוריתמים במולטימדיה",
        "link": "https://mega.nz/#F!ckUTwYTK!8y8EjjyK7Wpy1hDVy8UTvw"
      },
      {
        "name": "אנדרואיד - חיים מיכאל",
        "link": "https://mega.nz/#F!QlNBGShA!-HUgx-L9KdpHGLUeGkFyFw"
      },
      {
        "name": "בדיקות תוכנה QA",
        "link": "https://mega.nz/#F!00VhVIBZ!Uw6810QJH6UV-ksY7bnnqA"
      },
      {
        "name": "בינה מלאכותית",
        "link": "https://mega.nz/#F!l5NlDCIB!4JxfjIOvIP5zHX9Qe9R65g"
      },
      {
        "name": "בניית יישומים מאובטחים",
        "link": "https://mega.nz/#F!c1N3jSaQ!-jjntLmkoWJZHNq7QEv5Aw"
      },
      {
        "name": "גרפיקה ממחושבת",
        "link": "https://mega.nz/#F!IwVFzKII!uZhXvpvUQXJE9W_81L31Ww"
      },
      {
        "name": "הנדסה לאחור",
        "link": "https://mega.nz/#F!M8dFBAoY!doJKzbhWp_f0sp2fMlthYQ"
      },
      {
        "name": "יסודות מערכות מידע",
        "link": "https://mega.nz/#F!todnQS6I!EaaZ3RYzvD7ot091yZXsOw"
      },
      {
        "name": "כריית נתונים",
        "link": "https://mega.nz/#F!FtUn0azT!beRM42MYzBW2JEMe405rag"
      },
      {
        "name": "מבוא לתורת ההצפנה",
        "link": "https://mega.nz/#F!V8NxVKgY!iAHEiA9jlPRJrxtFi7Wvrg"
      },
      {
        "name": "מונחה עצמים C#",
        "link": "https://mega.nz/#F!V4M3AAII!dMi3E1uOdRGDMatKIUHZMg"
      },
      {
        "name": "רובוטיקה למדעי המחשב",
        "link": "https://mega.nz/#F!IgEXnCqK!ONHhna97jmWwabnEKXDLZg"
      },
      {
        "name": "תכנות בסביבת אינטרנט - Java",
        "link": "https://mega.nz/#F!s5M1iAhR!jQ4jzTAKj3kYSJnZtIs_Yg"
      }
    ],
    "OPTIONAL_COURSES": [
      {
        "name": "אתגרי מחשבה בפילוסופיה",
        "link": "https://mega.nz/#F!EhMHCS6R!LhO2VsSyRObRlcD__w1BFg"
      },
      {
        "name": "אתיקה בעסקים על פי המשפט העברית",
        "link": "https://mega.nz/#F!NgMlTazC!6fL78F_SBmD_C0dOLukQYA"
      },
      {
        "name": "האדם בין מימוש לאחריות חברתית",
        "link": "https://mega.nz/#F!ksNDkKSK!q52ihAeqLw7b9z2zDr923g"
      },
      {
        "name": "הבעות פנים מדארווין ועד היום - גילי פלד",
        "link": "https://mega.nz/#F!x0dDQKpY!S25ZxCYd2_2s6Vf3LxilHQ"
      },
      {
        "name": "הגירה בעולם משתנה",
        "link": "https://mega.nz/#F!gxNlmSTI!PRGoVGUleJWuxrZsBG9_DA"
      },
      {
        "name": "ידיעה ורגשות",
        "link": "https://mega.nz/#F!x4FXkKqZ!hbw8WmtNXxi4U4mKSeeEiQ"
      },
      {
        "name": "יסודות תורת הקבלה",
        "link": "https://mega.nz/#F!EkUzgYCY!sblsT8plNdkwTSVeGEJjDA"
      },
      {
        "name": "יצירתן של מדינות המזרח התיכון",
        "link": "https://mega.nz/#F!kxEHiYwC!PEHacV1xKyaAI2lpcPhCgw"
      },
      {
        "name": "כלכלה גלובלית",
        "link": "https://mega.nz/#F!ptFhWaQD!8PvstESiNIbLPwsFDbiYCw"
      },
      {
        "name": "מבוא לביולוגיה מודרנית",
        "link": "https://mega.nz/#F!JhV3wKYB!2aFQs5K3CTOU7U1ggXsfBg"
      },
      {
        "name": "מבוא לקיימות",
        "link": "https://mega.nz/#F!5hVTmQYY!lthMkpS4YNdgJVFCSjpeiQ"
      },
      {
        "name": "מוסיקה של שנת השישים התפתחות של מהפכה",
        "link": "https://mega.nz/#F!5xVFSQDQ!T7FWM4gSQ9ix5tA8_RDCaw"
      },
      {
        "name": "נשים במקרא בראייה פמניסטית סוציולוגית",
        "link": "https://mega.nz/#F!lhVDxKDD!dEEuyF8Y1YzNj3RT1sZCBg"
      },
      {
        "name": "סובלנות בחברה רב תרבותית",
        "link": "https://mega.nz/#F!F9M1UaYT!FPVHyW_ZDRrFN0Ze_q0GSg"
      },
      {
        "name": "סוגיות נבחרות בפסיכולוגיה של המנהיגות",
        "link": "https://mega.nz/#F!wgM10CqD!6qgRdCOWhMPYqpVsP0IH0A"
      },
      {
        "name": "סוגיות פילוסופיות ביצירות ספרותיות",
        "link": "https://mega.nz/#F!otEBXI7Z!5u4Ht859F3Y2i2sdBzVJkQ"
      },
      {
        "name": "פילוסופיה וקולנוע",
        "link": "https://mega.nz/#F!p1NRQIhK!HwwGDRzy7dhvGBE9kpTDlw"
      },
      {
        "name": "קהילות פוליטיקה עסקים באינטרנט",
        "link": "https://mega.nz/#F!F1Fx2AqQ!xsg7nYHaX39dNkI3j5Lnzg"
      },
      {
        "name": "קמפיינים פוליטיים - כץ ירון",
        "link": "https://mega.nz/#F!R5Mz2AIZ!EAwp9fyDWGvRMAmoLA4T2w"
      },
      {
        "name": "שואה וזיכרון",
        "link": "https://mega.nz/#F!l4cziQAb!8UndSVCbpSUXOS2vK4LDQA"
      },
      {
        "name": "שידורי טלויזיה בכבלים ובלווין",
        "link": "https://mega.nz/#F!MsEhkCbD!7qejOdYaLVNfnVe6wCl_ew"
      }
    ],
    "YEAR_A": {
      "SEMESTER_A": [
        {
          "name": "-סיכומים של אנה-",
          "link": "https://mega.nz/#F!B1ViFQCB!LfUVuP3ezKc_t-ubjHEpPA"
        },
        {
          "name": "אינפי 1",
          "link": "https://mega.nz/#F!t5NEQY4Q!7rIrF3-v0TlH5hxkUmuF-A"
        },
        {
          "name": "בדידה",
          "link": "https://mega.nz/#F!o8V2jIwC!fWdkVhGHiSNF1DmxPHv0CQ"
        },
        {
          "name": "ליניארית",
          "link": "https://mega.nz/#F!kgEEUawI!fuy6xz_d16R1atX6RJ3cRw"
        },
        {
          "name": "מבוא למדעי המחשב",
          "link": "https://mega.nz/#F!chcwgQ4A!szjTCl7MdSGpgDL_-omY1g"
        }
      ],
      "SEMESTER_B": [
        {
          "name": "אינפי 2",
          "link": "https://mega.nz/#F!8pEkTK7I!7Z-SJN1kghOajJ8HAi_LEA"
        },
        {
          "name": "מבוא להסתברות",
          "link": "https://mega.nz/#F!0gdCwQ5C!IXh3wrV4Vda51JRyywbzDw"
        },
        {
          "name": "מבני נתונים",
          "link": "https://mega.nz/#F!89cgQSQR!5o1-HFaJh5YgFf5z08n5EA"
        },
        {
          "name": "סדנה מתקדמת בתכנות",
          "link": "https://mega.nz/#F!gxM2FCyQ!ZdI33q7yeUeYVG1ArQ_P7g"
        },
        {
          "name": "תורת המיתוג",
          "link": "https://mega.nz/#F!E5MQgK5L!XK_eIpk8Lk7OLvbR8oZl5w"
        }
      ]
    },
    "YEAR_B": {
      "SEMESTER_A": [
        {
          "name": "ארגון המחשב ושפת סף",
          "link": "https://mega.nz/#F!t1MwSQ5R!wXV8f9MgpTeALxGfzS-9Ow"
        },
        {
          "name": "מערכות בסיסי נתונים",
          "link": "https://mega.nz/#F!A0MyzCJK!OFhcob-12hLZgE5net96VA"
        },
        {
          "name": "רשתות תקשורת מחשבים",
          "link": "https://mega.nz/#F!Y5F2mChS!3v_AB0SgBu-slX5ztXGSPA"
        },
        {
          "name": "תורת הגרפים",
          "link": "https://mega.nz/#F!dtdkRSyC!B9yF4bH6lYhYCJAjqZWdzg"
        },
        {
          "name": "תכנות מונחה עצמים",
          "link": "https://mega.nz/#F!QwVwTYTA!7DxKqrOZt6JKeDCXLOfmHg"
        }
      ],
      "SEMESTER_B": [
        {
          "name": "אוטומטים ושפות פורמליות",
          "link": "https://mega.nz/#F!l1NGDSIS!Is8t3i6HNWxx_fg--NWIrQ"
        },
        {
          "name": "הנדסת תוכנה",
          "link": "https://mega.nz/#F!BpMkiQSK!5Oc7896UIJklpnVWDdJcpw"
        },
        {
          "name": "לוגיקה למדעי המחשב",
          "link": "https://mega.nz/#F!tsNiHaBb!-E1Ns3lObEfDZbVy6Hq7yg"
        },
        {
          "name": "מערכות הפעלה",
          "link": "https://mega.nz/#F!RsEQWKpJ!ysFdQPSHW3hHA1S_KuMP1Q"
        },
        {
          "name": "תכנון וניתוח אלגוריתמים",
          "link": "https://mega.nz/#F!5oNw0aAI!DPn7bLv3D0T5ebBa2BdEqQ"
        }
      ]
    },
    "YEAR_C": {
      "SEMESTER_A": [
        {
          "name": "חישוביות וסיבוכיות",
          "link": "https://mega.nz/#F!MsVSHADb!8G1e4rfkXtpHBjAdKUbDEQ"
        },
        {
          "name": "כלים מתמטיים",
          "link": "https://mega.nz/#F!AldWAQgY!yaZ8KzP_0uyFs25RwZYe-A"
        },
        {
          "name": "למידת מכונה",
          "link": "https://mega.nz/#F!Q0F2gQCD!DwAut43PVSLCTRu9Z0Ynsw"
        }
      ],
      "SEMESTER_B": [
        {
          "name": "תורת הקומפילציה",
          "link": "https://mega.nz/#F!IsVQhIob!5bXtQyVp55wcaB2F_l4tvA"
        },
        {
          "name": "תכנות לוגי",
          "link": "https://mega.nz/#F!5kNWVKRJ!7OEwqSPxhsS1yNmnRV0kzA"
        }
      ]
    }
  }
}
